{
    "default": {
        "SDCLANG": false,
        "SDCLANG_PATH": "vendor/qcom/sdclang/compiler/bin",
        "SDCLANG_FLAGS": "-Wno-reorder-init-list -Wno-implicit-fallthrough -Wno-c99-designator -Wno-implicit-int-float-conversion -Wno-int-in-bool-context -Wno-alloca -Wno-dangling-gsl -Wno-pointer-compare -Wno-final-dtor-non-final-class -Wno-incomplete-setjmp-declaration -Wno-sizeof-array-div -Wno-xor-used-as-pow -fsplit-lto-unit -Wno-c++17-extensions -flax-vector-conversions=all  -Wno-tautological-overlap-compare -Wno-range-loop-analysis -Wno-invalid-partial-specialization -Wno-deprecated-copy -Wno-misleading-indentation -Wno-zero-as-null-pointer-constant -Wno-deprecated-enum-enum-conversion -Wno-deprecated-anon-enum-enum-conversion -Wno-bool-operation -Wno-unused-comparison -Wno-string-compare -Wno-wrong-info -Wno-thread-safety-analysis -Wno-unsequenced -Wno-unknown-warning-option -Wno-unused-variable -Wno-unused-value -Wno-unused-parameter -Wno-non-c-typedef-for-linkage  -Wno-typedef-redefinition -Wno-format -Wno-void-pointer-to-int-cast -Wno-pointer-to-int-cast -Wno-string-concatenation -Wno-void-pointer-to-enum-cast -Wno-incompatible-pointer-types -Wno-format-invalid-specifier-fcommon -Wno-self-assign -Wno-format -Wno-unused-label -Wno-pointer-sign -Wno-writable-strings -Wno-missing-declarations -Wno-reorder-ctor -Wno-unused-function -Wno-unused-but-set-variable -Wno-unused-but-set-parameter -Wno-null-pointer-subtraction -Wno-overriding-t-option -Wno-array-bounds -Wno-fortify-source -Wno-branch-protection"
    }
}
